28.0,26.0,25.5,25.0,25.2,25.4,25.5,25.7,25.9,26.0,26.0,26.0,26.0,26.0,26.0,26.1,26.2,26.4,26.6,26.7,26.9,27.0,27.0,27.0,27.0,27.0,27.0,27.1,27.3,27.5,27.6,27.8,28.0,28.0,28.0,28.0,28.0,28.0,28.0,23.0
26.0,26.0,25.2,25.1,25.3,25.5,25.6,25.8,25.9,25.9,25.9,25.9,25.9,25.9,26.2,26.3,26.5,26.7,26.8,27.0,27.0,27.0,26.9,26.9,26.9,26.9,26.9,26.9,27.1,27.2,27.4,27.6,27.7,27.9,28.0,28.0,28.0,28.0,28.0,23.0
25.7,25.5,25.0,25.2,25.4,25.6,25.7,25.8,25.8,25.8,25.8,25.8,25.9,26.3,26.4,26.6,26.8,26.9,27.1,27.0,27.0,26.9,26.9,26.7,26.7,26.7,26.7,26.7,26.7,27.0,27.2,27.3,27.5,27.7,27.8,27.9,28.0,28.0,28.0,23.0
25.5,25.1,25.1,25.3,25.5,25.6,25.7,25.7,25.7,25.7,25.7,25.9,26.4,26.5,26.7,26.9,27.0,27.2,27.1,27.0,26.9,26.9,26.9,26.9,26.6,26.6,26.6,26.6,26.6,26.7,26.9,27.1,27.3,27.5,27.6,27.7,27.8,27.9,28.0,23.0
25.2,25.1,25.2,25.3,25.5,25.6,25.6,25.6,25.6,25.6,26.0,26.4,26.6,26.8,27.0,27.2,27.2,27.1,27.1,27.0,26.9,26.9,26.8,26.8,26.8,26.5,26.5,26.5,26.5,26.5,26.6,26.8,27.1,27.2,27.4,27.6,27.6,27.7,27.8,23.0
25.0,25.1,25.2,25.3,25.5,25.5,25.5,25.5,25.6,26.1,26.5,26.7,26.9,27.1,27.3,27.2,27.2,27.1,27.0,26.9,26.9,26.8,26.8,26.8,26.8,26.7,26.4,26.3,26.3,26.3,26.3,26.5,26.7,27.0,27.2,27.3,27.5,27.6,27.6,23.0
25.0,25.1,25.2,25.3,25.4,25.4,25.4,25.7,26.1,26.6,26.8,27.0,27.2,27.4,27.3,27.2,27.1,27.1,27.0,26.9,26.8,26.8,26.8,26.8,26.7,26.7,26.6,26.4,26.2,26.2,26.2,26.2,26.4,26.7,26.9,27.1,27.3,27.4,27.5,23.0
25.0,25.1,25.2,25.3,25.3,25.3,25.8,26.2,26.6,26.9,27.1,27.3,27.4,27.3,27.3,27.2,27.1,27.0,27.0,26.9,26.8,26.8,26.8,26.7,26.7,26.7,26.7,26.5,26.3,26.0,26.0,26.0,26.1,26.3,26.6,26.8,27.1,27.2,27.3,23.0
25.0,25.1,25.2,25.3,25.4,25.8,26.3,26.7,27.0,27.2,27.4,27.5,27.4,27.3,27.2,27.1,27.1,27.0,26.9,26.8,26.8,26.8,26.7,26.7,26.7,26.7,26.6,26.6,26.4,26.2,25.9,25.9,25.9,26.0,26.2,26.5,26.7,27.0,27.1,23.0
25.0,25.1,25.2,25.4,25.9,26.3,26.8,27.1,27.3,27.5,27.5,27.4,27.3,27.3,27.2,27.1,27.0,27.0,26.9,26.8,26.8,26.7,26.7,26.7,26.7,26.6,26.6,26.6,26.6,26.4,26.1,25.8,25.8,25.8,25.9,26.1,26.4,26.7,26.9,23.0
25.0,25.1,25.5,26.0,26.4,26.9,27.2,27.4,27.6,27.5,27.5,27.4,27.3,27.2,27.2,27.1,27.0,26.9,26.8,26.8,26.7,26.7,26.7,26.7,26.6,26.6,26.6,26.6,26.5,26.5,26.3,26.0,25.8,25.6,25.6,25.8,26.1,26.3,26.6,23.0
25.1,25.6,26.0,26.5,26.9,27.3,27.5,27.7,27.6,27.5,27.4,27.3,27.3,27.2,27.1,27.0,27.0,26.9,26.8,26.7,26.7,26.7,26.6,26.6,26.6,26.6,26.6,26.5,26.5,26.5,26.4,26.2,25.9,25.7,25.5,25.5,25.7,26.0,26.2,23.0
25.7,26.1,26.5,27.0,27.4,27.6,27.7,27.6,27.5,27.5,27.4,27.3,27.2,27.2,27.1,27.0,26.9,26.9,26.8,26.7,26.7,26.6,26.6,26.6,26.6,26.5,26.5,26.5,26.5,26.5,26.4,26.4,26.1,25.8,25.6,25.4,25.4,25.6,25.9,23.0
26.2,26.6,27.1,27.5,27.7,27.7,27.7,27.6,27.5,27.4,27.4,27.3,27.2,27.1,27.1,27.0,26.9,26.8,26.7,26.7,26.6,26.6,26.6,26.6,26.5,26.5,26.5,26.5,26.5,26.4,26.4,26.4,26.3,26.0,25.8,25.5,25.2,25.3,25.5,23.0
26.7,27.1,27.6,27.8,27.8,27.7,27.6,27.6,27.5,27.4,27.3,27.2,27.2,27.1,27.0,26.9,26.9,26.8,26.7,26.6,26.6,26.6,26.6,26.5,26.5,26.5,26.5,26.4,26.4,26.4,26.4,26.4,26.3,26.2,25.9,25.7,25.4,25.2,25.2,23.0
27.2,27.6,27.9,27.8,27.7,27.7,27.6,27.5,27.4,27.4,27.3,27.2,27.1,27.1,27.0,26.9,26.8,26.8,26.7,26.6,26.6,26.6,26.5,26.5,26.5,26.5,26.4,26.4,26.4,26.4,26.3,26.3,26.3,26.3,26.1,25.8,25.6,25.3,25.1,23.0
27.7,27.9,27.9,27.8,27.7,27.6,27.6,27.5,27.4,27.3,27.3,27.2,27.1,27.0,26.9,26.9,26.8,26.7,26.6,26.6,26.6,26.5,26.5,26.5,26.5,26.4,26.4,26.4,26.4,26.3,26.3,26.3,26.3,26.2,26.2,26.0,25.8,25.5,25.2,23.0
27.8,27.9,27.8,27.8,27.7,27.6,27.5,27.5,27.4,27.3,27.2,27.1,27.1,27.0,26.9,26.8,26.8,26.7,26.6,26.5,26.5,26.5,26.5,26.5,26.4,26.4,26.4,26.4,26.3,26.3,26.3,26.3,26.2,26.2,26.2,26.2,25.9,25.7,25.4,23.0
27.3,27.8,27.8,27.7,27.6,27.6,27.5,27.4,27.3,27.3,27.2,27.1,27.0,27.0,26.9,26.8,26.7,26.7,26.6,26.5,26.5,26.5,26.4,26.4,26.4,26.4,26.4,26.3,26.3,26.3,26.3,26.2,26.2,26.2,26.2,26.1,26.1,25.8,25.6,23.0
26.8,27.3,27.8,27.7,27.6,27.5,27.5,27.4,27.3,27.2,27.2,27.1,27.0,26.9,26.8,26.8,26.7,26.6,26.5,26.5,26.5,26.4,26.4,26.4,26.4,26.3,26.3,26.3,26.3,26.3,26.2,26.2,26.2,26.2,26.1,26.1,26.1,26.0,25.8,23.0
26.2,26.8,27.3,27.7,27.6,27.5,27.4,27.3,27.3,27.2,27.1,27.0,27.0,26.9,26.8,26.7,26.7,26.6,26.5,26.5,26.4,26.4,26.4,26.4,26.3,26.3,26.3,26.3,26.2,26.2,26.2,26.2,26.2,26.1,26.1,26.1,26.1,26.0,25.9,23.0
25.7,26.3,26.8,27.4,27.5,27.5,27.4,27.3,27.2,27.2,27.1,27.0,26.9,26.9,26.8,26.7,26.6,26.5,26.5,26.4,26.4,26.4,26.4,26.3,26.3,26.3,26.3,26.2,26.2,26.2,26.2,26.1,26.1,26.1,26.1,26.1,26.0,26.0,26.1,23.0
25.2,25.8,26.3,26.8,27.4,27.4,27.4,27.3,27.2,27.1,27.0,27.0,26.9,26.8,26.7,26.7,26.6,26.5,26.4,26.4,26.4,26.4,26.3,26.3,26.3,26.3,26.2,26.2,26.2,26.2,26.1,26.1,26.1,26.1,26.1,26.0,26.0,26.1,26.3,23.0
25.0,25.2,25.8,26.3,26.9,27.4,27.3,27.2,27.2,27.1,27.0,26.9,26.9,26.8,26.7,26.6,26.6,26.5,26.4,26.4,26.4,26.3,26.3,26.3,26.3,26.2,26.2,26.2,26.2,26.1,26.1,26.1,26.1,26.0,26.0,26.0,26.0,26.2,26.4,23.0
25.0,25.0,25.3,25.8,26.4,26.9,27.3,27.2,27.1,27.1,27.0,26.9,26.8,26.8,26.7,26.6,26.5,26.4,26.4,26.3,26.3,26.3,26.3,26.3,26.2,26.2,26.2,26.2,26.1,26.1,26.1,26.1,26.0,26.0,26.0,26.0,26.2,26.4,26.6,23.0
25.0,25.0,25.0,25.3,25.9,26.4,26.9,27.2,27.1,27.0,26.9,26.9,26.8,26.7,26.6,26.6,26.5,26.4,26.3,26.3,26.3,26.3,26.2,26.2,26.2,26.2,26.2,26.1,26.1,26.1,26.1,26.0,26.0,26.0,26.0,26.2,26.4,26.6,26.8,23.0
25.0,25.0,25.0,25.1,25.3,25.9,26.4,27.0,27.1,27.0,26.9,26.8,26.8,26.7,26.6,26.5,26.5,26.4,26.3,26.3,26.3,26.2,26.2,26.2,26.2,26.1,26.1,26.1,26.1,26.1,26.0,26.0,26.0,26.0,26.2,26.4,26.6,26.7,26.9,23.0
25.0,25.0,25.0,25.0,25.1,25.4,25.9,26.5,27.0,27.0,26.9,26.8,26.7,26.6,26.6,26.5,26.4,26.3,26.3,26.3,26.2,26.2,26.2,26.2,26.1,26.1,26.1,26.1,26.0,26.0,26.0,26.0,26.0,26.1,26.3,26.5,26.7,26.9,27.1,23.0
25.0,25.0,25.0,25.0,25.0,25.2,25.4,25.9,26.5,26.9,26.8,26.8,26.7,26.6,26.5,26.5,26.4,26.3,26.3,26.2,26.2,26.2,26.2,26.1,26.1,26.1,26.1,26.0,26.0,26.0,26.0,26.0,26.1,26.3,26.5,26.7,26.9,27.2,27.3,23.0
25.5,25.0,25.0,25.0,25.0,25.1,25.3,25.4,26.0,26.5,26.8,26.7,26.7,26.6,26.5,26.4,26.4,26.3,26.2,26.2,26.2,26.2,26.1,26.1,26.1,26.1,26.0,26.0,26.0,26.0,26.0,26.1,26.3,26.5,26.7,27.0,27.2,27.4,27.5,23.0
26.2,25.6,25.0,25.0,25.0,25.0,25.1,25.3,25.5,26.0,26.5,26.7,26.6,26.5,26.5,26.4,26.3,26.2,26.2,26.2,26.1,26.1,26.1,26.1,26.1,26.0,26.0,26.0,26.0,26.0,26.1,26.3,26.5,26.7,27.0,27.3,27.4,27.5,27.6,23.0
26.9,26.3,25.7,25.0,25.0,25.0,25.0,25.2,25.4,25.5,26.0,26.6,26.6,26.5,26.4,26.4,26.3,26.2,26.2,26.1,26.1,26.1,26.1,26.1,26.0,26.0,26.0,26.0,26.0,26.1,26.3,26.4,26.7,27.0,27.4,27.5,27.6,27.7,27.8,23.0
27.5,27.0,26.4,25.8,25.1,25.0,25.0,25.1,25.2,25.4,25.6,26.1,26.6,26.5,26.4,26.3,26.2,26.2,26.1,26.1,26.1,26.1,26.0,26.0,26.0,26.0,26.0,26.0,26.0,26.2,26.4,26.7,27.0,27.4,27.6,27.7,27.8,27.9,28.0,23.0
28.2,27.7,27.1,26.5,25.8,25.1,25.0,25.0,25.1,25.3,25.5,25.6,26.1,26.4,26.4,26.3,26.2,26.1,26.1,26.1,26.1,26.0,26.0,26.0,26.0,26.0,26.0,26.0,26.2,26.4,26.7,27.1,27.4,27.6,27.7,27.8,27.9,28.1,27.7,23.0
28.9,28.4,27.8,27.3,26.6,25.9,25.2,25.0,25.0,25.2,25.3,25.5,25.7,26.1,26.3,26.3,26.2,26.1,26.1,26.1,26.0,26.0,26.0,26.0,26.0,26.0,26.0,26.2,26.4,26.8,27.1,27.4,27.7,27.8,27.9,28.0,28.2,28.2,27.4,23.0
29.0,29.0,28.5,28.0,27.3,26.6,26.0,25.3,25.0,25.1,25.2,25.4,25.6,25.7,26.2,26.2,26.1,26.1,26.1,26.0,26.0,26.0,26.0,26.0,26.0,26.0,26.2,26.4,26.8,27.1,27.5,27.8,27.9,28.0,28.1,28.3,28.5,27.8,27.1,23.0
29.0,29.0,29.0,28.6,28.1,27.4,26.7,26.0,25.3,25.0,25.1,25.3,25.5,25.6,25.8,26.2,26.1,26.0,26.0,26.0,26.0,26.0,26.0,26.0,26.0,26.1,26.5,26.8,27.2,27.5,27.8,27.9,28.1,28.2,28.4,28.6,28.3,27.5,26.7,23.0
29.0,29.0,29.0,29.0,28.8,28.1,27.5,26.8,26.1,25.4,25.0,25.2,25.3,25.5,25.7,25.9,26.1,26.0,26.0,26.0,26.0,26.0,26.0,26.0,26.2,26.5,26.8,27.2,27.5,27.9,28.0,28.2,28.3,28.5,28.7,28.7,27.9,27.1,26.4,23.0
29.0,29.0,29.0,29.0,29.0,28.9,28.2,27.5,26.8,26.2,25.5,25.0,25.2,25.4,25.6,25.7,25.9,26.0,26.0,26.0,26.0,26.0,26.0,26.2,26.5,26.9,27.2,27.6,27.9,28.1,28.3,28.5,28.6,28.8,29.0,28.3,27.6,26.8,26.0,23.0
23.0,23.0,23.0,23.0,23.0,23.0,23.0,23.0,23.0,23.0,23.0,23.0,23.0,23.0,23.0,23.0,23.0,23.0,23.0,23.0,23.0,23.0,23.0,23.0,23.0,23.0,23.0,23.0,23.0,23.0,23.0,23.0,23.0,23.0,23.0,23.0,23.0,23.0,23.0,23.0
